\relax 
\providecommand\HyperFirstAtBeginDocument{\AtBeginDocument}
\HyperFirstAtBeginDocument{\ifx\hyper@anchor\@undefined
\global\let\oldcontentsline\contentsline
\gdef\contentsline#1#2#3#4{\oldcontentsline{#1}{#2}{#3}}
\global\let\oldnewlabel\newlabel
\gdef\newlabel#1#2{\newlabelxx{#1}#2}
\gdef\newlabelxx#1#2#3#4#5#6{\oldnewlabel{#1}{{#2}{#3}}}
\AtEndDocument{\ifx\hyper@anchor\@undefined
\let\contentsline\oldcontentsline
\let\newlabel\oldnewlabel
\fi}
\fi}
\global\let\hyper@last\relax 
\gdef\HyperFirstAtBeginDocument#1{#1}
\providecommand\HyField@AuxAddToFields[1]{}
\catcode`"\active
\select@language{danish}
\@writefile{toc}{\select@language{danish}}
\@writefile{lof}{\select@language{danish}}
\@writefile{lot}{\select@language{danish}}
\@writefile{toc}{\contentsline {section}{\numberline {1}Introduction}{2}{section.1}}
\@writefile{toc}{\contentsline {subsection}{\numberline {1.1}The HorsePower Webshop}{2}{subsection.1.1}}
\@writefile{toc}{\contentsline {subsubsection}{\numberline {1.1.1}Front store}{2}{subsubsection.1.1.1}}
\@writefile{toc}{\contentsline {subsubsection}{\numberline {1.1.2}Back store}{2}{subsubsection.1.1.2}}
\@writefile{toc}{\contentsline {subsection}{\numberline {1.2}Technologies}{2}{subsection.1.2}}
\@writefile{toc}{\contentsline {subsection}{\numberline {1.3}General process}{3}{subsection.1.3}}
\@writefile{toc}{\contentsline {subsubsection}{\numberline {1.3.1}Controller}{3}{subsubsection.1.3.1}}
\@writefile{toc}{\contentsline {subsubsection}{\numberline {1.3.2}*Servlet}{4}{subsubsection.1.3.2}}
\@writefile{toc}{\contentsline {section}{\numberline {2}Testing the project}{5}{section.2}}
\@writefile{toc}{\contentsline {subsection}{\numberline {2.1}Setup and folder structure}{5}{subsection.2.1}}
\@writefile{toc}{\contentsline {subsection}{\numberline {2.2}Front Store}{5}{subsection.2.2}}
\@writefile{toc}{\contentsline {subsection}{\numberline {2.3}Back Store}{7}{subsection.2.3}}
